objid	container	server_template_crc	cell_index	px	py	pz	qw	qx	qy	qz	scripts	objvars
i	i	h	i	f	f	f	f	f	f	f	s	p
1775424	0	object/static/structure/general/skeleton_human_headandbody.iff	0	1229	102.216	507.878	1	0	0	0		$|
