objid	container	server_template_crc	cell_index	px	py	pz	qw	qx	qy	qz	scripts	objvars
i	i	h	i	f	f	f	f	f	f	f	s	p
9715624	0	object/static/structure/naboo/gungan_relic_s02.iff	0	1480.26	61.5302	1088.26	1	0	0	0		$|
9715627	0	object/static/structure/naboo/gungan_relic_s02.iff	0	1475.29	65.7732	1080.55	0.731689	0	-0.681639	0		$|
9715628	0	object/static/structure/naboo/gungan_pillar_damaged_s01.iff	0	1480.7	76.4208	1097.39	1	0	0	0		$|
9715629	0	object/static/structure/naboo/gungan_pillar_ruined_s01.iff	0	1480.84	76.2063	1094.62	1	0	0	0		$|
9715631	0	object/static/structure/naboo/gungan_wall_ruined_lg_s02.iff	0	1474.58	75.7804	1091.54	0.707107	0	0.707106	0		$|
9715632	0	object/static/structure/naboo/gungan_damaged_wall_lg_s01.iff	0	1468.96	75.9349	1086.27	0.997951	0.00199863	0.0399394	-0.0499392		$|
9715634	0	object/static/structure/naboo/gungan_relic_s01.iff	0	1473.55	66.7983	1100.41	1	0	0	0		$|
