objid	container	server_template_crc	cell_index	px	py	pz	qw	qx	qy	qz	scripts	objvars
i	i	h	i	f	f	f	f	f	f	f	s	p
9715890	0	object/static/structure/naboo/garden_gazebo_lg_s01.iff	0	1735.06	74.2374	1670.68	0.990901	0	0.13459	0		$|
