objid	container	server_template_crc	cell_index	px	py	pz	qw	qx	qy	qz	scripts	objvars
i	i	h	i	f	f	f	f	f	f	f	s	p
6075870	0	object/building/general/talus_binyare_bunker.iff	0	1487.79	102	15.9927	0.70711	0	-0.707103	0	theme_park.dungeon.generic_spawner	spawn_table|4|datatables/spawning/poi_spawner/talus/poi_binayre_bunker.iff|$|
6075871	6075870	object/cell/cell.iff	1	0	0	0	1	1.401298E-45	0	0		$|
6075872	6075870	object/cell/cell.iff	2	0	0	0	1	2.802597E-45	0	0		$|
6075873	6075870	object/cell/cell.iff	3	0	0	0	1	4.203895E-45	0	0		$|
6075874	6075870	object/cell/cell.iff	4	0	0	0	1	5.605194E-45	0	0		$|
6075875	6075870	object/cell/cell.iff	5	0	0	0	1	7.006492E-45	0	0		$|
8095603	6075875	object/tangible/container/loot/placable_loot_crate.iff	5	6.258742	-6.751583	-10.37133	1	0	0	0		$|
6075876	6075870	object/cell/cell.iff	6	0	0	0	1	8.407791E-45	0	0		$|
6075877	6075870	object/cell/cell.iff	7	0	0	0	1	9.809089E-45	0	0		$|
178364	6075877	object/tangible/container/loot/placable_loot_crate.iff	7	0.09129076	-13.74994	1.284792	0.707107	0	-0.7071065	0		$|
4885837	6075877	object/tangible/terminal/terminal_syren5_comm_array.iff	7	-6.264425	-13.74999	-13.88753	1	0	0	0		$|
6075878	6075870	object/cell/cell.iff	8	0	0	0	1	1.121039E-44	0	0		$|
8095744	6075878	object/tangible/container/loot/placable_loot_crate.iff	8	6.446865	-13.75842	9.119934	1	0	0	0		$|
6075879	6075870	object/cell/cell.iff	9	0	0	0	1	1.261169E-44	0	0		$|
3795397	6075879	object/tangible/dungeon/corellian_corvette/corvette_search_neutral_assassination_01.iff	9	12.98352	-13.75842	14.30345	0.707107	0	0.7071065	0		$|
8095745	6075879	object/tangible/container/loot/placable_loot_crate.iff	9	18.18578	-13.75842	-0.508322	-0.7038454	0	0.7103533	0		$|
6075880	6075870	object/cell/cell.iff	10	0	0	0	1	1.401298E-44	0	0		$|
4885840	6075880	object/tangible/terminal/terminal_syren5_shield_generator.iff	10	17.30628	-11.5	-21.69565	1	0	0	0		$|
8095746	6075880	object/tangible/container/loot/placable_loot_crate.iff	10	10.58555	-11.5	-21.61178	1	0	0	0		$|
6075881	0	object/static/installation/mockup_power_generator_fusion_style_1.iff	0	1502.79	102	15.9927	1	0	0	0		$|
6075882	0	object/static/structure/corellia/corl_imprv_wall_4x16_s01.iff	0	1506.79	100.152	7.99268	0.707111	0	0.707102	0		$|
6075883	0	object/static/structure/corellia/corl_imprv_wall_4x16_s01.iff	0	1506.79	100.152	23.9927	0.707111	0	0.707102	0		$|
6075884	0	object/static/structure/corellia/corl_imprv_wall_4x16_s02.iff	0	1497.79	102	15.9927	0.707107	0	0.707107	0		$|
6075886	0	object/static/structure/corellia/corl_imprv_wall_4x32_s01.iff	0	1490.79	100.152	31.9927	1	0	0	0		$|
6075887	0	object/static/structure/corellia/corl_imprv_wall_4x16_s01.iff	0	1468.79	100.152	25.9927	0.92388	0	-0.382683	0		$|
6075888	0	object/static/structure/corellia/corl_imprv_wall_4x16_s01.iff	0	1468.79	100.152	5.99268	0.92388	0	0.382683	0		$|
6075889	0	object/static/structure/corellia/corl_imprv_gate_sm_s01.iff	0	1462.79	102	15.9927	0.707107	0	0.707107	0		$|
6075890	0	object/static/structure/corellia/corl_imprv_column_s01.iff	0	1506.79	100.152	31.9927	1	0	0	0		$|
6075892	0	object/static/structure/corellia/corl_imprv_column_s01.iff	0	1474.91	100.152	31.7466	0.827928	0	0.560834	0		$|
6075893	0	object/static/structure/corellia/corl_imprv_column_s01.iff	0	1474.89	100.152	0.231934	0.556692	0	0.830719	0		$|
6075894	0	object/static/structure/corellia/corl_imprv_column_s01.iff	0	1462.79	100.152	19.9927	-0.375559	0	0.926798	0		$|
6075895	0	object/static/structure/corellia/corl_imprv_column_s01.iff	0	1462.79	100.152	11.9927	0.361615	0	0.932327	0		$|
6075896	0	object/static/structure/corellia/corl_imprv_column_s01.iff	0	1506.79	100.152	15.9927	1	0	0	0		$|
6075897	0	object/static/structure/corellia/corl_imprv_column_s02.iff	0	1497.79	102	23.9927	1	0	0	0		$|
6075898	0	object/static/structure/corellia/corl_imprv_column_s02.iff	0	1497.79	102	7.99268	1	0	0	0		$|
6725369	0	object/static/vehicle/e3/landspeeder.iff	0	1490.79	102.253	26.666	0.707389	0	0.706825	0		$|
6725373	0	object/static/particle/pt_smoke_small.iff	0	1493.73	103.663	26.6587	0.875175	0	0	-0.483807		$|
6725374	0	object/tangible/furniture/all/frn_all_toolchest_lg_s01.iff	0	1488.56	102	22.4487	1	0	0	0		$|
6725375	0	object/static/structure/general/prp_engine.iff	0	1487.13	102	22.5999	-0.613746	0	0.789504	0		$|
6725376	0	object/static/creature/droids_r5.iff	0	1490.3	102	28.5356	0.999933	0	-0.0115925	0		$|
6725377	0	object/static/particle/pt_poi_droid_weld_sparks.iff	0	1490.32	102.831	28.5022	0.0167364	0.0123417	0.804661	-0.59337		$|
6725382	0	object/static/structure/corellia/corl_power_arial_prime.iff	0	1494.76	102	10.4834	1	0	0	0		$|
6725383	0	object/static/particle/pt_light_blink_orange.iff	0	1494.67	116.159	10.7212	1	0	0	0		$|
6725384	0	object/static/structure/corellia/corl_tent_small.iff	0	1491.67	102	5.01294	1	0	0	0		$|
6725385	0	object/static/structure/general/campfire_fresh.iff	0	1487.4	102	4.78418	1	0	0	0		$|
6725392	0	object/static/item/item_tool_turbine_generator.iff	0	1488.52	102	9.58569	0.709793	0	-0.70441	0		$|
6725393	0	object/static/item/item_container_inorganic_chemicals.iff	0	1486.93	102	9.64185	0.707107	0	0.707106	0		$|
6725394	0	object/static/item/item_container_organic_structure.iff	0	1492.82	102	6.04272	1	0	0	0		$|
6725395	0	object/static/item/item_container_organic_structure.iff	0	1492.78	102	5.30225	0.999388	0	-0.0349929	0		$|
6725396	0	object/static/item/item_container_electronics.iff	0	1492.32	102	4.05322	0.685869	0	0.727726	0		$|
6725398	0	object/static/structure/tatooine/debris_tatt_crate_1.iff	0	1491.79	102	5.52148	1	0	0	0		$|
6725399	0	object/static/structure/general/camp_lawn_chair_s01.iff	0	1490.64	102	4.26782	0.789992	0	-0.613117	0		$|
6725405	0	object/static/item/item_container_inorganic_minerals.iff	0	1475.33	102	21.2515	1	0	0	0		$|
6725406	0	object/static/item/item_container_energy_liquid.iff	0	1475.58	102	20.1101	1	0	0	0		$|
6725407	0	object/static/item/item_container_energy_liquid.iff	0	1475.13	102	20.1267	1	0	0	0		$|
6725408	0	object/static/item/item_container_energy_liquid.iff	0	1475.28	102	19.8042	1	0	0	0		$|
6725410	0	object/static/item/wp_mle_2h_sword_axe_s01.iff	0	1475.63	102.215	19.4153	0.979061	0	0	-0.203567		$|
6725421	0	object/static/structure/talus/talus_imprv_flagpole_s01.iff	0	1497.8	102.869	24.0386	1	0	0	0		$|
6725422	0	object/static/structure/talus/talus_imprv_flagpole_s01.iff	0	1497.86	102.905	8.05151	1	0	0	0		$|
6725423	0	object/static/structure/tatooine/debris_tatt_drum_storage_1.iff	0	1475.43	102	11.082	1	0	0	0		$|
6725424	0	object/static/structure/tatooine/debris_tatt_drum_dented_1.iff	0	1475.35	102	10.1555	1	0	0	0		$|
6725425	0	object/static/structure/tatooine/debris_tatt_drum_storage_1.iff	0	1475.42	102	11.9111	1	0	0	0		$|
6725426	0	object/static/structure/tatooine/debris_tatt_crate_metal_1.iff	0	1475.43	102.885	11.4941	0.768054	0	0.640385	0		$|
