objid	container	server_template_crc	cell_index	px	py	pz	qw	qx	qy	qz	scripts	objvars
i	i	h	i	f	f	f	f	f	f	f	s	p
8585367	0	object/static/structure/naboo/nboo_imprv_short_curved_wall_small_s01.iff	0	1735.46	7.97123	1745.19	1	0	0	0		$|
8585382	0	object/static/structure/naboo/nboo_imprv_pillar_pillar_s03.iff	0	1739.15	8.74254	1749.24	0.999687	0	0.0249974	0		$|
8585383	0	object/static/structure/naboo/nboo_imprv_pillar_pillar_s03.iff	0	1734.9	8.53093	1744.98	0.9998	0	0.0199987	0		$|
8585384	0	object/static/structure/naboo/nboo_imprv_short_curved_wall_small_s01.iff	0	1739.44	8.22047	1749.19	0.717911	0	-0.696134	0		$|
8585385	0	object/static/structure/naboo/nboo_imprv_pillar_pillar_s03.iff	0	1735.2	8.6876	1753.42	0.9998	0	0.0199987	0		$|
8585386	0	object/static/structure/naboo/nboo_imprv_short_curved_wall_small_s01.iff	0	1735.04	8.22645	1753.48	-0.0807089	0	0.996738	0		$|
8585387	0	object/static/structure/naboo/nboo_imprv_pillar_pillar_s03.iff	0	1730.76	8.78519	1749.36	0.999987	0	-0.00499998	0		$|
8585388	0	object/static/structure/naboo/nboo_imprv_short_curved_wall_small_s01.iff	0	1730.4	8.00601	1748.93	0.734003	0	0.679146	0		$|
8585390	0	object/static/structure/general/bench_generic_style_1.iff	0	1738.92	7.81595	1745.42	0.343646	0	0.939099	0		$|
8585391	0	object/static/structure/general/bench_generic_style_1.iff	0	1739.62	8.17295	1752.65	0.900447	0	0.434965	0		$|
8585392	0	object/static/structure/general/bench_generic_style_1.iff	0	1731.49	8.18112	1753.91	0.962425	0	-0.271548	0		$|
8585393	0	object/static/structure/general/bench_generic_style_1.iff	0	1730.77	8.07539	1745.32	-0.40246	0	0.915438	0		$|
8585394	0	object/static/flora/flora_bush_yavin_blueleaf.iff	0	1736.41	8.13222	1749.8	1	0	0	0		$|
8585395	0	object/static/flora/flora_bush_yavin_blueleaf.iff	0	1732.68	8.09844	1747.36	1	0	0	0		$|
8585396	0	object/static/flora/flora_bush_yavin_blueleaf.iff	0	1733.09	8.21404	1751.64	1	0	0	0		$|
8585397	0	object/static/flora/flora_bush_yavin_blueleaf.iff	0	1736.79	8.02144	1747.63	1	0	0	0		$|
8585398	0	object/static/flora/flora_bush_yavin_blueleaf.iff	0	1734.14	8.15438	1749.21	1	0	0	0		$|
8585401	0	object/static/flora/potted_plant_flowers_purple.iff	0	1734.84	7.59191	1748.83	1	0	0	0		$|
8585402	0	object/static/flora/potted_plant_flowers_purple.iff	0	1735.46	7.58271	1748.14	1	0	0	0		$|
8585403	0	object/static/flora/potted_plant_flowers_purple.iff	0	1734.64	7.53827	1747.98	1	0	0	0		$|
8585404	0	object/static/flora/potted_plant_flowers_orange.iff	0	1734.08	7.59021	1751.39	1	0	0	0		$|
8585405	0	object/static/flora/potted_plant_flowers_orange.iff	0	1734.86	7.55521	1750.99	1	0	0	0		$|
8585406	0	object/static/flora/potted_plant_flowers_orange.iff	0	1734.26	7.53872	1750.67	1	0	0	0		$|
8585407	0	object/static/flora/potted_plant_leaves_ivy.iff	0	1732.53	7.67977	1750.6	1	0	0	0		$|
8585408	0	object/static/flora/potted_plant_leaves_ivy.iff	0	1733.52	7.64838	1750.4	1	0	0	0		$|
8585409	0	object/static/flora/potted_plant_leaves_ivy.iff	0	1732.89	7.62565	1749.87	1	0	0	0		$|
8585410	0	object/static/flora/potted_plant_leaves_small.iff	0	1736.23	7.57313	1751.29	1	0	0	0		$|
8585411	0	object/static/flora/potted_plant_leaves_small.iff	0	1736.74	7.56192	1751.28	1	0	0	0		$|
8585412	0	object/static/flora/potted_plant_leaves_small.iff	0	1736.43	7.53296	1750.74	1	0	0	0		$|
8585413	0	object/static/flora/potted_plant_leaves_fern.iff	0	1733.27	7.31396	1748.76	1	0	0	0		$|
8585414	0	object/static/flora/potted_plant_leaves_fern.iff	0	1733.43	7.29518	1748.43	1	0	0	0		$|
8585415	0	object/static/flora/potted_plant_leaves_fern.iff	0	1732.67	6.90364	1748.26	1	0	0	0		$|
8585417	0	object/static/flora/flora_tree_lok_mkpud.iff	0	1735.11	7.65618	1749.71	1	0	0	0		$|
8585418	0	object/static/flora/flora_tree_lok_mkpud.iff	0	1733.98	7.99067	1744.44	0.877582	0	0	0.479426		$|
8585419	0	object/static/flora/flora_tree_lok_mkpud.iff	0	1740.19	6.98327	1747.26	1	0	0	0		$|
8585420	0	object/static/flora/flora_tree_lok_mkpud.iff	0	1737.31	7.23305	1744.66	1	0	0	0		$|
8585421	0	object/static/flora/flora_tree_lok_mkpud.iff	0	1730	8.16562	1747.85	1	0	0	0		$|
8585422	0	object/static/flora/flora_tree_lok_mkpud.iff	0	1735.36	9.76018	1753.03	1	0	0	0		$|
8585424	0	object/static/flora/flora_bush_yavin_blueleaf.iff	0	1738.02	8.83091	1746.26	1	0	0	0		$|
8585425	0	object/static/flora/flora_bush_yavin_blueleaf.iff	0	1740.16	8.1214	1751.77	1	0	0	0		$|
8585426	0	object/static/flora/flora_bush_yavin_blueleaf.iff	0	1728.78	8.18835	1753.35	1	0	0	0		$|
8585427	0	object/static/flora/flora_bush_yavin_blueleaf.iff	0	1729.6	8.12824	1745.42	1	0	0	0		$|
8585428	0	object/static/flora/flora_bush_yavin_blueleaf.iff	0	1735.16	7.90617	1743.53	1	0	0	0		$|
8585429	0	object/static/flora/flora_bush_yavin_blueleaf.iff	0	1740.34	7.99225	1749.4	1	0	0	0		$|
8585430	0	object/static/flora/flora_bush_yavin_blueleaf.iff	0	1743.33	7.82924	1748.21	1	0	0	0		$|
8585431	0	object/static/flora/flora_bush_yavin_blueleaf.iff	0	1735.33	9.81145	1744.64	1	0	0	0		$|
8585432	0	object/static/flora/flora_bush_yavin_blueleaf.iff	0	1738.76	7.72005	1773.72	1	0	0	0		$|
8585433	0	object/static/flora/flora_bush_yavin_blueleaf.iff	0	1710.08	6.8308	1752.52	1	0	0	0		$|
8585434	0	object/static/flora/flora_bush_yavin_blueleaf.iff	0	1728.58	7.52626	1733.2	1	0	0	0		$|
8585435	0	object/static/flora/flora_bush_yavin_blueleaf.iff	0	1758.17	8.19991	1760.62	1	0	0	0		$|
8585436	0	object/static/flora/flora_bush_yavin_blueleaf.iff	0	1743.86	12.5158	1785.85	1	0	0	0		$|
8585438	0	object/static/flora/flora_decd_scorched_tallbirch_broke.iff	0	780.366	2.80381	915.876	1	0	0	0		$|
8585446	0	object/static/flora/flora_decd_scorched_tallbirch_broke.iff	0	779.763	2.85451	908.802	0.719061	0.158198	0.656943	0.162327		$|
8585448	0	object/static/flora/flora_decd_scorched_tallbirch_broke.iff	0	776.053	2.95605	913.91	-0.687948	0.128494	0.650568	-0.294923		$|
8585449	0	object/static/flora/flora_decd_scorched_tallbirch_broke.iff	0	778.413	2.96482	920.855	0.848106	-0.0210564	0.256639	-0.463043		$|
8585450	0	object/static/flora/flora_bush_yavin_blueleaf.iff	0	782.276	2.91417	923.955	1	0	0	0		$|
8585451	0	object/static/flora/flora_bush_yavin_blueleaf.iff	0	774.06	2.9387	919.544	1	0	0	0		$|
8585452	0	object/static/flora/flora_bush_yavin_blueleaf.iff	0	785.216	2.86374	901.619	1	0	0	0		$|
8585453	0	object/static/flora/flora_bush_yavin_blueleaf.iff	0	777.395	2.91883	916.178	1	0	0	0		$|
8585454	0	object/static/flora/flora_bush_yavin_blueleaf.iff	0	770.225	2.98312	904.666	1	0	0	0		$|
8585455	0	object/static/flora/flora_bush_yavin_blueleaf.iff	0	794.611	3.30343	929.488	1	0	0	0		$|
8585456	0	object/static/flora/flora_bush_yavin_blueleaf.iff	0	772.794	3.14165	929.291	1	0	0	0		$|
8585457	0	object/static/flora/flora_bush_yavin_blueleaf.iff	0	798.806	2.96784	915.52	1	0	0	0		$|
8585458	0	object/static/flora/flora_bush_yavin_blueleaf.iff	0	789.609	2.93248	913.21	1	0	0	0		$|
8585459	0	object/static/structure/general/streetlamp_small_style_01.iff	0	777.252	1.3606	917.475	1	0	0	0		$|
8585467	0	object/static/structure/dantooine/dant_fence_8m.iff	0	1960.91	38.9134	1039.72	0.761611	0	-0.648034	0		$|
8585468	0	object/static/structure/dantooine/dant_fence_8m.iff	0	1959.68	37.907	1047.29	0.935897	0	0.352274	0		$|
8585469	0	object/static/structure/dantooine/dant_fence_8m.iff	0	1953.47	36.9029	1049.22	0.988012	0	-0.15438	0		$|
8585470	0	object/static/structure/dantooine/dant_fence_8m.iff	0	1948.04	35.5463	1045.23	0.862807	0	-0.505533	0		$|
8585471	0	object/static/structure/dantooine/dant_fence_8m.iff	0	1948.98	35.9206	1038.4	0.884675	0	0.466208	0		$|
8585472	0	object/static/structure/dantooine/dant_fence_8m.iff	0	1957	38.1891	1034.14	0.982936	0	-0.183947	0		$|
8585473	0	object/static/flora/flora_tree_lok_mkpud.iff	0	1956.53	35.9784	1036.61	1	0	0	0		$|
8585474	0	object/static/flora/flora_tree_lok_mkpud.iff	0	1949	34.9101	1042.49	1	0	0	0		$|
8585475	0	object/static/flora/flora_tree_lok_mkpud.iff	0	1951.37	35.2082	1037.93	1	0	0	0		$|
8585476	0	object/static/flora/flora_tree_lok_mkpud.iff	0	1956.03	35.6547	1047.31	1	0	0	0		$|
8585477	0	object/static/flora/flora_tree_lok_mkpud.iff	0	1951.21	35.0582	1046.74	1	0	0	0		$|
8585478	0	object/static/flora/flora_tree_lok_mkpud.iff	0	1959.01	36.2712	1041.53	1	0	0	0		$|
8585479	0	object/static/flora/flora_tree_lok_mkpud.iff	0	1957.66	35.8941	1044.92	1	0	0	0		$|
8585480	0	object/static/flora/flora_tree_lok_mkpud.iff	0	1954.6	35.0208	1044.74	1	0	0	0		$|
8585481	0	object/static/structure/dantooine/dant_fence_4m.iff	0	1952.27	36.9571	1033.69	0.955336	0	0.29552	0		$|
8585484	0	object/static/structure/general/streetlamp_small_style_01.iff	0	1956	35.4454	1041.45	1	0	0	0		$|
8585466	0	object/static/corellia/rock_crystal_geyser_agrilat_small.iff	0	1955.99	16.8117	1041.95	1	0	0	0		$|
