objid	container	server_template_crc	cell_index	px	py	pz	qw	qx	qy	qz	scripts	objvars
i	i	h	i	f	f	f	f	f	f	f	s	p
8495506	0	object/static/structure/general/landing_pad_shuttle.iff	0	955.555	7.98048	1342.5	1	0	0	0		$|
8495507	0	object/static/structure/general/planter_generic_style_1.iff	0	955.259	5.86981	1348.71	1	0	0	0		$|
8495508	0	object/static/structure/general/planter_generic_style_2.iff	0	956.73	6.09073	1336.99	1	0	0	0		$|
8845386	0	object/static/structure/naboo/gungan_relic_s02.iff	0	926.614	8.46936	1482.46	1	0	0	0		$|
8845391	0	object/static/structure/naboo/gungan_sacred_head_s01.iff	0	943.289	43.139	356.112	0.155904	0.0366808	0.962256	0.220027		$|
