CUSTOMIZATION_GROUP	IS_MARKING	IS_HAIR
s	b[0]	b[0]
body		
eyes_nose		
face		
markings	1	
hair		1
cosmetic		
eyebrows		
freckles		
frills		1
fur	1	
horns_hair		1
lekku		1
ridges		1
tattoos	1	
trunk
ears_chin_mouth
